dplyr <–> SQL
…
--

.pull-right[

```r
dplyr::collect(oct_21)
```

```
## # A tibble: 991 × 3
##    origin dest  tailnum
##    <chr>  <chr> <chr>  
##  1 EWR    CLT   N152UW 
##  2 EWR    IAH   N535UA 
##  3 JFK    MIA   N5BSAA 
##  4 JFK    SJU   N531JB 
##  5 JFK    BQN   N827JB 
##  6 LGA    IAH   N15710 
##  7 JFK    IAD   N825AS 
##  8 EWR    TPA   N802UA 
##  9 LGA    ATL   N996DL 
## 10 JFK    FLL   N627JB 
## # … with 981 more rows
```
…
.pull-left[

```r
data(flights, package = "nycflights13")

tidyquery::query(
  "SELECT origin, dest, COUNT(*) AS n
   FROM flights
   WHERE month = 10 AND day = 21
   GROUP BY origin, dest"
)
```

```
## # A tibble: 181 × 3
##    origin dest      n
##    <chr>  <chr> <int>
##  1 EWR    ATL      15
##  2 EWR    AUS       3
##  3 EWR    AVL       1
##  4 EWR    BNA       7
##  5 EWR    BOS      17
##  6 EWR    BTV       3
##  7 EWR    BUF       2
##  8 EWR    BWI       1
##  9 EWR    CHS       4
## 10 EWR    CLE       4
## # … with 171 more rows
```
…
.pull-right[

```r
flights %>%
  tidyquery::query(
    "SELECT origin, dest, COUNT(*) AS n
     WHERE month = 10 AND day = 21
     GROUP BY origin, dest"
  ) %>%
  arrange(desc(n))
```

```
## # A tibble: 181 × 3
##    origin dest      n
##    <chr>  <chr> <int>
##  1 JFK    LAX      32
##  2 LGA    ORD      31
##  3 LGA    ATL      30
##  4 JFK    SFO      24
##  5 LGA    CLT      22
##  6 EWR    ORD      18
##  7 EWR    SFO      18
##  8 EWR    BOS      17
##  9 LGA    MIA      17
## 10 EWR    LAX      16
## # … with 171 more rows
```
…
.pull-right[

```r
sqldf::sqldf(
  "SELECT origin, dest, COUNT(*) AS n
   FROM flights
   WHERE month = 10 AND day = 21
   GROUP BY origin, dest"
) %>%
  as_tibble() %>%
  arrange(desc(n))
```

```
## # A tibble: 181 × 3
##    origin dest      n
##    <chr>  <chr> <int>
##  1 JFK    LAX      32
##  2 LGA    ORD      31
##  3 LGA    ATL      30
##  4 JFK    SFO      24
##  5 LGA    CLT      22
##  6 EWR    ORD      18
##  7 EWR    SFO      18
##  8 EWR    BOS      17
##  9 LGA    MIA      17
## 10 EWR    LAX      16
## # … with 171 more rows
```
…
